{
  "mqtt_server": "mqtt://yourserver.com:8883",
  "topic": "test_topic",
  "message": {
    "idDispositivo": "1A2B3C4D",
    "idTienda": "ABCDEF",
    "idCliente": "A1B2C3D4",
    "data": {
      "tipoDisp": "player",
      "idContenido": "11223344566",
      "nombreContenido": "girasoles.mov"
    },
    "timestamp": "2018-01-19T08:47:27.473Z"
  }

}